U.S Tornadoes
…
What was the most dangerous tornado in the U.S between 1950-2022?

The tornado that was the most dangerous from 1950 to 2022 was the tornado in 2011 that happened in Missouri there were 158 fatalities the tornado was called Joplin.

tornado |>
  select(st,mag,yr,fat) |>
  filter(mag %in% "5",) |>
  group_by(fat) |>
  arrange(desc(fat))

# A tibble: 59 × 4
# Groups:   fat [37]
   st      mag    yr   fat
   <chr> <dbl> <dbl> <dbl>
 1 MO        5  2011   158
 2 MI        5  1953   116
 3 TX        5  1953   114
 4 OK        5  1955    80
 5 AL        5  2011    72
 6 MS        5  1966    58
 7 LA        5  1971    47
 8 KS        5  1957    44
 9 MS        5  1953    38
10 OH        5  1974    36
# ℹ 49 more rows
